{
  "name": "Autocar",
  "fields": [
    {
      "fieldName": "numeroSociete",
      "fieldType": "String"
    },
    {
      "fieldName": "marque",
      "fieldType": "String"
    },
    {
      "fieldName": "immatriculation",
      "fieldType": "String"
    },
    {
      "fieldName": "capacite",
      "fieldType": "Integer"
    },
    {
      "fieldName": "actif",
      "fieldType": "Boolean"
    }
  ],
  "relationships": [
    {
      "relationshipType": "many-to-one",
      "otherEntityName": "codification",
      "otherEntityRelationshipName": "autocar",
      "relationshipName": "categorie",
      "otherEntityField": "id"
    }
  ],
  "changelogDate": "20200704202213",
  "entityTableName": "autocar",
  "dto": "mapstruct",
  "pagination": "pagination",
  "service": "serviceImpl",
  "jpaMetamodelFiltering": false,
  "fluentMethods": true,
  "readOnly": false,
  "embedded": false,
  "clientRootFolder": "referentiel",
  "applications": "*",
  "microserviceName": "referentiel"
}
