id;libelle;actif
1;Micronesia revolutionize Monitored;true
2;bypassing;true
3;Hat;false
4;Rubber;true
5;Rustic Frozen Bacon Ergonomic;true
6;e-markets hard drive;false
7;payment Awesome Fresh Mouse Plastic;false
8;primary;false
9;monitor global;true
10;reboot;false
